-- Merging decision tree log ---
manifest
ADDED from /Users/work/Downloads/withattendandroid/app/src/main/AndroidManifest.xml:2:1-103:12
	package
		ADDED from /Users/work/Downloads/withattendandroid/app/src/main/AndroidManifest.xml:3:5-29
		INJECTED from /Users/work/Downloads/withattendandroid/app/src/main/AndroidManifest.xml
		INJECTED from /Users/work/Downloads/withattendandroid/app/src/main/AndroidManifest.xml
	android:versionName
		ADDED from /Users/work/Downloads/withattendandroid/app/src/main/AndroidManifest.xml:5:5-30
		INJECTED from /Users/work/Downloads/withattendandroid/app/src/main/AndroidManifest.xml
		INJECTED from /Users/work/Downloads/withattendandroid/app/src/main/AndroidManifest.xml
	android:versionCode
		ADDED from /Users/work/Downloads/withattendandroid/app/src/main/AndroidManifest.xml:4:5-29
		INJECTED from /Users/work/Downloads/withattendandroid/app/src/main/AndroidManifest.xml
		INJECTED from /Users/work/Downloads/withattendandroid/app/src/main/AndroidManifest.xml
	xmlns:android
		ADDED from /Users/work/Downloads/withattendandroid/app/src/main/AndroidManifest.xml:2:11-69
uses-permission#android.permission.INTERNET
ADDED from /Users/work/Downloads/withattendandroid/app/src/main/AndroidManifest.xml:8:5-67
MERGED from [com.google.android.gms:play-services-ads-lite:9.4.0] /Users/work/.android/build-cache/fe22a308ec0ea69a0012531cd7ebb74a3d460d33/output/AndroidManifest.xml:20:5-66
MERGED from [com.google.android.gms:play-services-analytics:9.4.0] /Users/work/.android/build-cache/f1d9aa46d168dfbaec4c583c46f6959faa732b1e/output/AndroidManifest.xml:21:5-67
MERGED from [com.google.android.gms:play-services-appinvite:9.4.0] /Users/work/.android/build-cache/29a49711b90e482b198ce38720bfb0f3d180e3e6/output/AndroidManifest.xml:19:5-67
MERGED from [com.google.firebase:firebase-crash:9.4.0] /Users/work/.android/build-cache/370bc7179b32e78bacee32b4fdb69c316a4cac80/output/AndroidManifest.xml:20:5-66
MERGED from [com.google.android.gms:play-services-gcm:9.4.0] /Users/work/.android/build-cache/bcad44bee7d72b8c923b48bb668bfee9284eefb7/output/AndroidManifest.xml:22:5-67
MERGED from [com.google.android.gms:play-services-iid:9.4.0] /Users/work/.android/build-cache/cac865e6b1c9ca760030f5906d7567a4d2b801d5/output/AndroidManifest.xml:22:5-67
MERGED from [com.google.android.gms:play-services-analytics-impl:9.4.0] /Users/work/.android/build-cache/576613ac006fbbdfcbfd548563d474e215ca7708/output/AndroidManifest.xml:21:5-67
MERGED from [com.google.android.gms:play-services-tagmanager-api:9.4.0] /Users/work/.android/build-cache/13d4ba8fe1bdce594f2c181522f9b33afec75a4e/output/AndroidManifest.xml:21:5-67
MERGED from [com.google.firebase:firebase-analytics:9.4.0] /Users/work/.android/build-cache/ae7dd4bdaae64f349ca5a4d048cf1112efc51151/output/AndroidManifest.xml:21:5-67
MERGED from [com.google.firebase:firebase-analytics-impl:9.4.0] /Users/work/.android/build-cache/ac4c1f281ab4872cfc87636c914887fa59b85e28/output/AndroidManifest.xml:21:5-67
MERGED from [com.google.firebase:firebase-iid:9.4.0] /Users/work/.android/build-cache/f3506fcf3f4169f73917240b95c59cf1810adaef/output/AndroidManifest.xml:21:5-67
MERGED from [com.google.android.gms:play-services-maps:9.4.0] /Users/work/.android/build-cache/0200337316e9a7eb8a7afbc8e05d8cefc4e29801/output/AndroidManifest.xml:21:5-66
MERGED from [com.crashlytics.sdk.android:crashlytics:2.6.1] /Users/work/.android/build-cache/afede2339c099e8f7ed9624730fc71891ac0e1dc/output/AndroidManifest.xml:9:5-67
MERGED from [com.crashlytics.sdk.android:crashlytics-core:2.3.10] /Users/work/.android/build-cache/3694f32a2de082bcefd97f0ccfd7dfb705c9d3d1/output/AndroidManifest.xml:9:5-67
MERGED from [com.crashlytics.sdk.android:beta:1.2.1] /Users/work/.android/build-cache/259f770ef66ba0be0e238de904e044e3f19b999b/output/AndroidManifest.xml:9:5-67
MERGED from [com.crashlytics.sdk.android:answers:1.3.8] /Users/work/.android/build-cache/2a87d35fce089e46c65df31bf559d75d3c8d8c41/output/AndroidManifest.xml:9:5-67
MERGED from [io.fabric.sdk.android:fabric:1.3.12] /Users/work/.android/build-cache/7bef7c3b5176ba5814e7e1e19fd54dff80fcf452/output/AndroidManifest.xml:25:5-67
	android:name
		ADDED from /Users/work/Downloads/withattendandroid/app/src/main/AndroidManifest.xml:8:22-64
uses-permission#android.permission.ACCESS_WIFI_STATE
ADDED from /Users/work/Downloads/withattendandroid/app/src/main/AndroidManifest.xml:9:5-76
	android:name
		ADDED from /Users/work/Downloads/withattendandroid/app/src/main/AndroidManifest.xml:9:22-73
uses-permission#android.permission.ACCESS_NETWORK_STATE
ADDED from /Users/work/Downloads/withattendandroid/app/src/main/AndroidManifest.xml:10:5-79
MERGED from [com.google.android.gms:play-services-ads-lite:9.4.0] /Users/work/.android/build-cache/fe22a308ec0ea69a0012531cd7ebb74a3d460d33/output/AndroidManifest.xml:21:5-78
MERGED from [com.google.android.gms:play-services-analytics:9.4.0] /Users/work/.android/build-cache/f1d9aa46d168dfbaec4c583c46f6959faa732b1e/output/AndroidManifest.xml:22:5-79
MERGED from [com.google.android.gms:play-services-nearby:9.4.0] /Users/work/.android/build-cache/7ef52e3754453e12831bef270318eef12f01ca2a/output/AndroidManifest.xml:5:5-79
MERGED from [com.google.android.gms:play-services-analytics-impl:9.4.0] /Users/work/.android/build-cache/576613ac006fbbdfcbfd548563d474e215ca7708/output/AndroidManifest.xml:22:5-79
MERGED from [com.google.android.gms:play-services-tagmanager-api:9.4.0] /Users/work/.android/build-cache/13d4ba8fe1bdce594f2c181522f9b33afec75a4e/output/AndroidManifest.xml:22:5-79
MERGED from [com.google.firebase:firebase-analytics:9.4.0] /Users/work/.android/build-cache/ae7dd4bdaae64f349ca5a4d048cf1112efc51151/output/AndroidManifest.xml:22:5-79
MERGED from [com.google.firebase:firebase-analytics-impl:9.4.0] /Users/work/.android/build-cache/ac4c1f281ab4872cfc87636c914887fa59b85e28/output/AndroidManifest.xml:22:5-79
MERGED from [com.google.firebase:firebase-iid:9.4.0] /Users/work/.android/build-cache/f3506fcf3f4169f73917240b95c59cf1810adaef/output/AndroidManifest.xml:20:5-79
MERGED from [com.google.android.gms:play-services-maps:9.4.0] /Users/work/.android/build-cache/0200337316e9a7eb8a7afbc8e05d8cefc4e29801/output/AndroidManifest.xml:20:5-78
	android:name
		ADDED from /Users/work/Downloads/withattendandroid/app/src/main/AndroidManifest.xml:10:22-76
uses-permission#android.permission.INTERACT_ACROSS_USERS_FULL
ADDED from /Users/work/Downloads/withattendandroid/app/src/main/AndroidManifest.xml:11:5-85
	android:name
		ADDED from /Users/work/Downloads/withattendandroid/app/src/main/AndroidManifest.xml:11:22-82
uses-permission#android.permission.RECEIVE_BOOT_COMPLETED
ADDED from /Users/work/Downloads/withattendandroid/app/src/main/AndroidManifest.xml:13:5-81
MERGED from [org.altbeacon:android-beacon-library:2.9.2] /Users/work/.android/build-cache/f31e7733a8d9e6a3c975172351151f54315e0379/output/AndroidManifest.xml:17:5-81
	android:name
		ADDED from /Users/work/Downloads/withattendandroid/app/src/main/AndroidManifest.xml:13:22-78
uses-permission#android.permission.BLUETOOTH
ADDED from /Users/work/Downloads/withattendandroid/app/src/main/AndroidManifest.xml:14:5-68
MERGED from [org.altbeacon:android-beacon-library:2.9.2] /Users/work/.android/build-cache/f31e7733a8d9e6a3c975172351151f54315e0379/output/AndroidManifest.xml:11:5-13:36
	android:required
		ADDED from [org.altbeacon:android-beacon-library:2.9.2] /Users/work/.android/build-cache/f31e7733a8d9e6a3c975172351151f54315e0379/output/AndroidManifest.xml:13:9-33
	android:name
		ADDED from /Users/work/Downloads/withattendandroid/app/src/main/AndroidManifest.xml:14:22-65
uses-permission#android.permission.ACCESS_COARSE_LOCATION
ADDED from /Users/work/Downloads/withattendandroid/app/src/main/AndroidManifest.xml:15:5-81
	android:name
		ADDED from /Users/work/Downloads/withattendandroid/app/src/main/AndroidManifest.xml:15:22-78
uses-permission#android.permission.ACCESS_FINE_LOCATION
ADDED from /Users/work/Downloads/withattendandroid/app/src/main/AndroidManifest.xml:16:5-79
	android:name
		ADDED from /Users/work/Downloads/withattendandroid/app/src/main/AndroidManifest.xml:16:22-76
uses-permission#android.permission.BLUETOOTH_ADMINL
ADDED from /Users/work/Downloads/withattendandroid/app/src/main/AndroidManifest.xml:17:5-75
	android:name
		ADDED from /Users/work/Downloads/withattendandroid/app/src/main/AndroidManifest.xml:17:22-72
uses-permission#android.permission.VIBRATE
ADDED from /Users/work/Downloads/withattendandroid/app/src/main/AndroidManifest.xml:18:5-66
	android:name
		ADDED from /Users/work/Downloads/withattendandroid/app/src/main/AndroidManifest.xml:18:22-63
uses-permission#android.permission.WAKE_LOCK
ADDED from /Users/work/Downloads/withattendandroid/app/src/main/AndroidManifest.xml:19:5-68
MERGED from [com.google.android.gms:play-services-analytics:9.4.0] /Users/work/.android/build-cache/f1d9aa46d168dfbaec4c583c46f6959faa732b1e/output/AndroidManifest.xml:25:5-67
MERGED from [com.google.android.gms:play-services-analytics-impl:9.4.0] /Users/work/.android/build-cache/576613ac006fbbdfcbfd548563d474e215ca7708/output/AndroidManifest.xml:25:5-67
MERGED from [com.google.firebase:firebase-analytics:9.4.0] /Users/work/.android/build-cache/ae7dd4bdaae64f349ca5a4d048cf1112efc51151/output/AndroidManifest.xml:24:5-67
MERGED from [com.google.firebase:firebase-analytics-impl:9.4.0] /Users/work/.android/build-cache/ac4c1f281ab4872cfc87636c914887fa59b85e28/output/AndroidManifest.xml:24:5-67
MERGED from [com.google.firebase:firebase-iid:9.4.0] /Users/work/.android/build-cache/f3506fcf3f4169f73917240b95c59cf1810adaef/output/AndroidManifest.xml:22:5-68
	android:name
		ADDED from /Users/work/Downloads/withattendandroid/app/src/main/AndroidManifest.xml:19:22-65
uses-permission#com.android.alarm.permission.SET_ALARM
ADDED from /Users/work/Downloads/withattendandroid/app/src/main/AndroidManifest.xml:20:5-77
	android:name
		ADDED from /Users/work/Downloads/withattendandroid/app/src/main/AndroidManifest.xml:20:22-75
uses-permission#com.google.android.c2dm.permission.RECEIVE
ADDED from /Users/work/Downloads/withattendandroid/app/src/main/AndroidManifest.xml:21:5-81
MERGED from [com.google.android.gms:play-services-gcm:9.4.0] /Users/work/.android/build-cache/bcad44bee7d72b8c923b48bb668bfee9284eefb7/output/AndroidManifest.xml:21:5-82
MERGED from [com.google.android.gms:play-services-iid:9.4.0] /Users/work/.android/build-cache/cac865e6b1c9ca760030f5906d7567a4d2b801d5/output/AndroidManifest.xml:21:5-82
MERGED from [com.google.firebase:firebase-iid:9.4.0] /Users/work/.android/build-cache/f3506fcf3f4169f73917240b95c59cf1810adaef/output/AndroidManifest.xml:23:5-82
	android:name
		ADDED from /Users/work/Downloads/withattendandroid/app/src/main/AndroidManifest.xml:21:22-79
uses-permission#${applicationId}.permission.C2D_MESSAGE
ADDED from /Users/work/Downloads/withattendandroid/app/src/main/AndroidManifest.xml:22:5-78
	android:name
		ADDED from /Users/work/Downloads/withattendandroid/app/src/main/AndroidManifest.xml:22:22-76
		INJECTED from /Users/work/Downloads/withattendandroid/app/src/main/AndroidManifest.xml
permission#${applicationId}.permission.C2D_MESSAGE
ADDED from /Users/work/Downloads/withattendandroid/app/src/main/AndroidManifest.xml:23:5-109
	android:protectionLevel
		ADDED from /Users/work/Downloads/withattendandroid/app/src/main/AndroidManifest.xml:23:72-107
	android:name
		ADDED from /Users/work/Downloads/withattendandroid/app/src/main/AndroidManifest.xml:23:17-71
		INJECTED from /Users/work/Downloads/withattendandroid/app/src/main/AndroidManifest.xml
application
ADDED from /Users/work/Downloads/withattendandroid/app/src/main/AndroidManifest.xml:25:5-101:20
MERGED from [org.altbeacon:android-beacon-library:2.9.2] /Users/work/.android/build-cache/f31e7733a8d9e6a3c975172351151f54315e0379/output/AndroidManifest.xml:21:5-40:19
MERGED from [com.android.support:support-v13:23.4.0] /Users/work/.android/build-cache/6a1eb7b6f833d963c1c07f3065680d2bcdf2fe57/output/AndroidManifest.xml:22:5-20
MERGED from [com.android.support:design:23.4.0] /Users/work/.android/build-cache/0b9a43519e8f84da91671bf652a744955ee84fae/output/AndroidManifest.xml:22:5-20
MERGED from [com.github.delight-im:Android-DDP:v3.1.2] /Users/work/.android/build-cache/08022a7a5592ffc742c2841ae504d451e78553f4/output/AndroidManifest.xml:9:5-20
MERGED from [com.google.firebase:firebase-core:9.4.0] /Users/work/.android/build-cache/9018cfdd9656a09b72ed65e8fc91b54fd91c0443/output/AndroidManifest.xml:5:5-20
MERGED from [com.google.android.gms:play-services:9.4.0] /Users/work/.android/build-cache/53ef53e0f1ecefc806d632a027cf6e2202c719b2/output/AndroidManifest.xml:5:5-20
MERGED from [com.google.android.gms:play-services-ads-lite:9.4.0] /Users/work/.android/build-cache/fe22a308ec0ea69a0012531cd7ebb74a3d460d33/output/AndroidManifest.xml:24:5-32:19
MERGED from [com.google.android.gms:play-services-analytics:9.4.0] /Users/work/.android/build-cache/f1d9aa46d168dfbaec4c583c46f6959faa732b1e/output/AndroidManifest.xml:27:5-20
MERGED from [com.google.android.gms:play-services-appinvite:9.4.0] /Users/work/.android/build-cache/29a49711b90e482b198ce38720bfb0f3d180e3e6/output/AndroidManifest.xml:20:5-30:19
MERGED from [com.google.android.gms:play-services-auth:9.4.0] /Users/work/.android/build-cache/908820f289cae3ea86447cd4a682d5cdda1d4b7e/output/AndroidManifest.xml:20:5-32:19
MERGED from [com.google.android.gms:play-services-cast-framework:9.4.0] /Users/work/.android/build-cache/d0a6f0e0d898e14ad5b50e216799c76c1c887e3f/output/AndroidManifest.xml:5:5-9:19
MERGED from [com.google.android.gms:play-services-cast:9.4.0] /Users/work/.android/build-cache/f0c31785fe856363da8121ea92265e2aa574a213/output/AndroidManifest.xml:19:5-20
MERGED from [com.android.support:mediarouter-v7:23.0.0] /Users/work/.android/build-cache/7a58a0b50084afece7e0f047f1371294a51741f3/output/AndroidManifest.xml:22:5-20
MERGED from [com.android.support:appcompat-v7:23.4.0] /Users/work/.android/build-cache/9cfe28f2c6500e46548f4d14b935c77ec5f9e1da/output/AndroidManifest.xml:25:5-20
MERGED from [com.android.support:animated-vector-drawable:23.4.0] /Users/work/.android/build-cache/ee1d3bbef1efcf4c4a7a6f956adbba6fcbfbdc70/output/AndroidManifest.xml:7:5-20
MERGED from [com.android.support:support-vector-drawable:23.4.0] /Users/work/.android/build-cache/fbe9e5dda92d77ba93a064ac265ec3d7368b5c1c/output/AndroidManifest.xml:7:5-20
MERGED from [com.google.android.gms:play-services-clearcut:9.4.0] /Users/work/.android/build-cache/059c7f7a24c759bcdfc5391e09b95d102f9b931b/output/AndroidManifest.xml:19:5-20
MERGED from [com.google.firebase:firebase-config:9.4.0] /Users/work/.android/build-cache/d4ea88ef30d9ec043d2ea0f165b755c8730c7a0e/output/AndroidManifest.xml:19:5-20
MERGED from [com.google.android.gms:play-services-contextmanager:9.4.0] /Users/work/.android/build-cache/5f9fd8de94d085fff49506f8c05d09b06ffa9863/output/AndroidManifest.xml:19:5-20
MERGED from [com.google.firebase:firebase-crash:9.4.0] /Users/work/.android/build-cache/370bc7179b32e78bacee32b4fdb69c316a4cac80/output/AndroidManifest.xml:24:5-32:19
MERGED from [com.google.firebase:firebase-auth:9.4.0] /Users/work/.android/build-cache/59c6c63872132176595bed50c67d7b8c8245bc75/output/AndroidManifest.xml:20:5-21:19
MERGED from [com.google.firebase:firebase-auth-common:9.4.0] /Users/work/.android/build-cache/48b94d4d6c9e4ae3719533fa2474dbe9af02bd4b/output/AndroidManifest.xml:20:5-21:19
MERGED from [com.google.firebase:firebase-messaging:9.4.0] /Users/work/.android/build-cache/5a0daf93d9caad4e65d02ccebaaffd5f7f14d2dc/output/AndroidManifest.xml:20:5-32:19
MERGED from [com.google.android.gms:play-services-fitness:9.4.0] /Users/work/.android/build-cache/6f90d7b193e890468b49bebc59b943af0f0b4513/output/AndroidManifest.xml:19:5-20
MERGED from [com.google.android.gms:play-services-games:9.4.0] /Users/work/.android/build-cache/b6b5a19b65f373b0a6698792102643997c6cd4ed/output/AndroidManifest.xml:19:5-20
MERGED from [com.google.android.gms:play-services-drive:9.4.0] /Users/work/.android/build-cache/0284bb92315e58ec736f30b14c11290a0adc7d07/output/AndroidManifest.xml:19:5-20
MERGED from [com.google.android.gms:play-services-gass:9.4.0] /Users/work/.android/build-cache/2a0089e247283013d083d01006c58c1352aa5097/output/AndroidManifest.xml:19:5-20
MERGED from [com.google.android.gms:play-services-gcm:9.4.0] /Users/work/.android/build-cache/bcad44bee7d72b8c923b48bb668bfee9284eefb7/output/AndroidManifest.xml:24:5-20
MERGED from [com.google.android.gms:play-services-appindexing:9.4.0] /Users/work/.android/build-cache/3c2e93c2ebe1009f54baefc05a3c81136d9a683d/output/AndroidManifest.xml:19:5-20
MERGED from [com.google.android.gms:play-services-iid:9.4.0] /Users/work/.android/build-cache/cac865e6b1c9ca760030f5906d7567a4d2b801d5/output/AndroidManifest.xml:24:5-20
MERGED from [com.google.android.gms:play-services-location:9.4.0] /Users/work/.android/build-cache/d4b04d20a9a10d86963a4d96bad3df5fefa8f51a/output/AndroidManifest.xml:19:5-20
MERGED from [com.google.android.gms:play-services-nearby:9.4.0] /Users/work/.android/build-cache/7ef52e3754453e12831bef270318eef12f01ca2a/output/AndroidManifest.xml:6:5-20
MERGED from [com.google.android.gms:play-services-panorama:9.4.0] /Users/work/.android/build-cache/0569e415c94675ee14b894d694a220583793abfb/output/AndroidManifest.xml:19:5-20
MERGED from [com.google.android.gms:play-services-places:9.4.0] /Users/work/.android/build-cache/52c3db512996c10b8a733009b19ca1d67387c754/output/AndroidManifest.xml:19:5-20
MERGED from [com.google.android.gms:play-services-plus:9.4.0] /Users/work/.android/build-cache/0bddbcb149d1ad2258f22e3087f59f31f8716e31/output/AndroidManifest.xml:19:5-20
MERGED from [com.google.android.gms:play-services-safetynet:9.4.0] /Users/work/.android/build-cache/9e812650d7ca43a2b869eeac703aedc75fa43e91/output/AndroidManifest.xml:19:5-20
MERGED from [com.google.android.gms:play-services-analytics-impl:9.4.0] /Users/work/.android/build-cache/576613ac006fbbdfcbfd548563d474e215ca7708/output/AndroidManifest.xml:27:5-20
MERGED from [com.google.android.gms:play-services-tagmanager-api:9.4.0] /Users/work/.android/build-cache/13d4ba8fe1bdce594f2c181522f9b33afec75a4e/output/AndroidManifest.xml:24:5-38:19
MERGED from [com.google.firebase:firebase-analytics:9.4.0] /Users/work/.android/build-cache/ae7dd4bdaae64f349ca5a4d048cf1112efc51151/output/AndroidManifest.xml:26:5-41:19
MERGED from [com.google.firebase:firebase-analytics-impl:9.4.0] /Users/work/.android/build-cache/ac4c1f281ab4872cfc87636c914887fa59b85e28/output/AndroidManifest.xml:26:5-41:19
MERGED from [com.google.firebase:firebase-iid:9.4.0] /Users/work/.android/build-cache/f3506fcf3f4169f73917240b95c59cf1810adaef/output/AndroidManifest.xml:30:5-59:19
MERGED from [com.google.firebase:firebase-common:9.4.0] /Users/work/.android/build-cache/52bc78d3838bce579433897036df713827886dc5/output/AndroidManifest.xml:5:5-12:19
MERGED from [com.google.android.gms:play-services-vision:9.4.0] /Users/work/.android/build-cache/ca580a90a6e36f0d190d16261524e7a49a7107b0/output/AndroidManifest.xml:5:5-20
MERGED from [com.google.android.gms:play-services-identity:9.4.0] /Users/work/.android/build-cache/4fbd89e1f8435b5e6d7e7ee1ebe9c2ce595b23e4/output/AndroidManifest.xml:19:5-20
MERGED from [com.google.android.gms:play-services-maps:9.4.0] /Users/work/.android/build-cache/0200337316e9a7eb8a7afbc8e05d8cefc4e29801/output/AndroidManifest.xml:27:5-20
MERGED from [com.google.android.gms:play-services-wearable:9.4.0] /Users/work/.android/build-cache/896c6783c78569d173b42d9ee7e81df085903af9/output/AndroidManifest.xml:19:5-20
MERGED from [com.google.android.gms:play-services-base:9.4.0] /Users/work/.android/build-cache/91c9131a0f5a60439914531fd9d8fcf43b8e8c4d/output/AndroidManifest.xml:19:5-23:19
MERGED from [com.google.android.gms:play-services-tasks:9.4.0] /Users/work/.android/build-cache/475e4e742b5d423e2c51404be806a923cdcdcd16/output/AndroidManifest.xml:5:5-20
MERGED from [com.google.android.gms:play-services-basement:9.4.0] /Users/work/.android/build-cache/e702cca84dadf5417e0dac986c6387c16d4852d8/output/AndroidManifest.xml:20:5-24:19
MERGED from [com.android.support:percent:23.2.0] /Users/work/.android/build-cache/37fbc5c99bdbf0e7b9dbf39368e14dac1e13fbe3/output/AndroidManifest.xml:22:5-20
MERGED from [com.android.support:support-v4:23.4.0] /Users/work/.android/build-cache/dedf105fa1624da4fa713364b01d663d52f810be/output/AndroidManifest.xml:22:5-20
MERGED from [com.crashlytics.sdk.android:crashlytics:2.6.1] /Users/work/.android/build-cache/afede2339c099e8f7ed9624730fc71891ac0e1dc/output/AndroidManifest.xml:11:5-20
MERGED from [com.crashlytics.sdk.android:crashlytics-core:2.3.10] /Users/work/.android/build-cache/3694f32a2de082bcefd97f0ccfd7dfb705c9d3d1/output/AndroidManifest.xml:11:5-20
MERGED from [com.crashlytics.sdk.android:beta:1.2.1] /Users/work/.android/build-cache/259f770ef66ba0be0e238de904e044e3f19b999b/output/AndroidManifest.xml:11:5-20
MERGED from [com.crashlytics.sdk.android:answers:1.3.8] /Users/work/.android/build-cache/2a87d35fce089e46c65df31bf559d75d3c8d8c41/output/AndroidManifest.xml:11:5-20
MERGED from [io.fabric.sdk.android:fabric:1.3.12] /Users/work/.android/build-cache/7bef7c3b5176ba5814e7e1e19fd54dff80fcf452/output/AndroidManifest.xml:27:5-20
	android:screenOrientation
		ADDED from /Users/work/Downloads/withattendandroid/app/src/main/AndroidManifest.xml:30:9-45
	android:label
		ADDED from /Users/work/Downloads/withattendandroid/app/src/main/AndroidManifest.xml:29:9-41
	android:allowBackup
		ADDED from /Users/work/Downloads/withattendandroid/app/src/main/AndroidManifest.xml:27:9-35
	android:icon
		ADDED from /Users/work/Downloads/withattendandroid/app/src/main/AndroidManifest.xml:28:9-44
	android:theme
		ADDED from /Users/work/Downloads/withattendandroid/app/src/main/AndroidManifest.xml:31:9-40
	android:name
		ADDED from /Users/work/Downloads/withattendandroid/app/src/main/AndroidManifest.xml:26:9-51
activity#com.attend.app.splashActivity
ADDED from /Users/work/Downloads/withattendandroid/app/src/main/AndroidManifest.xml:33:9-41:20
	android:screenOrientation
		ADDED from /Users/work/Downloads/withattendandroid/app/src/main/AndroidManifest.xml:35:13-49
	android:theme
		ADDED from /Users/work/Downloads/withattendandroid/app/src/main/AndroidManifest.xml:36:13-47
	android:name
		ADDED from /Users/work/Downloads/withattendandroid/app/src/main/AndroidManifest.xml:34:13-43
intent-filter#android.intent.action.MAIN+android.intent.category.LAUNCHER
ADDED from /Users/work/Downloads/withattendandroid/app/src/main/AndroidManifest.xml:37:13-40:29
action#android.intent.action.MAIN
ADDED from /Users/work/Downloads/withattendandroid/app/src/main/AndroidManifest.xml:38:17-69
	android:name
		ADDED from /Users/work/Downloads/withattendandroid/app/src/main/AndroidManifest.xml:38:25-66
category#android.intent.category.LAUNCHER
ADDED from /Users/work/Downloads/withattendandroid/app/src/main/AndroidManifest.xml:39:17-77
	android:name
		ADDED from /Users/work/Downloads/withattendandroid/app/src/main/AndroidManifest.xml:39:27-74
activity#com.attend.app.MonitoringActivity
ADDED from /Users/work/Downloads/withattendandroid/app/src/main/AndroidManifest.xml:42:9-46:47
	android:screenOrientation
		ADDED from /Users/work/Downloads/withattendandroid/app/src/main/AndroidManifest.xml:45:13-49
	android:label
		ADDED from /Users/work/Downloads/withattendandroid/app/src/main/AndroidManifest.xml:44:13-45
	android:theme
		ADDED from /Users/work/Downloads/withattendandroid/app/src/main/AndroidManifest.xml:46:13-44
	android:name
		ADDED from /Users/work/Downloads/withattendandroid/app/src/main/AndroidManifest.xml:43:13-47
activity#com.attend.app.RangingActivity
ADDED from /Users/work/Downloads/withattendandroid/app/src/main/AndroidManifest.xml:47:9-58:20
	android:screenOrientation
		ADDED from /Users/work/Downloads/withattendandroid/app/src/main/AndroidManifest.xml:50:13-49
	android:label
		ADDED from /Users/work/Downloads/withattendandroid/app/src/main/AndroidManifest.xml:49:13-45
	android:theme
		ADDED from /Users/work/Downloads/withattendandroid/app/src/main/AndroidManifest.xml:51:13-44
	android:name
		ADDED from /Users/work/Downloads/withattendandroid/app/src/main/AndroidManifest.xml:48:13-44
intent-filter#android.intent.action.VIEW+android.intent.category.BROWSABLE+android.intent.category.DEFAULT
ADDED from /Users/work/Downloads/withattendandroid/app/src/main/AndroidManifest.xml:52:13-57:29
data
ADDED from /Users/work/Downloads/withattendandroid/app/src/main/AndroidManifest.xml:53:17-71
	android:host
		ADDED from /Users/work/Downloads/withattendandroid/app/src/main/AndroidManifest.xml:53:51-69
	android:scheme
		ADDED from /Users/work/Downloads/withattendandroid/app/src/main/AndroidManifest.xml:53:23-50
action#android.intent.action.VIEW
ADDED from /Users/work/Downloads/withattendandroid/app/src/main/AndroidManifest.xml:54:17-68
	android:name
		ADDED from /Users/work/Downloads/withattendandroid/app/src/main/AndroidManifest.xml:54:25-66
category#android.intent.category.BROWSABLE
ADDED from /Users/work/Downloads/withattendandroid/app/src/main/AndroidManifest.xml:55:17-77
	android:name
		ADDED from /Users/work/Downloads/withattendandroid/app/src/main/AndroidManifest.xml:55:27-75
category#android.intent.category.DEFAULT
ADDED from /Users/work/Downloads/withattendandroid/app/src/main/AndroidManifest.xml:56:17-75
	android:name
		ADDED from /Users/work/Downloads/withattendandroid/app/src/main/AndroidManifest.xml:56:27-73
activity#com.attend.app.LoginActivity
ADDED from /Users/work/Downloads/withattendandroid/app/src/main/AndroidManifest.xml:59:9-63:47
	android:screenOrientation
		ADDED from /Users/work/Downloads/withattendandroid/app/src/main/AndroidManifest.xml:62:13-49
	android:label
		ADDED from /Users/work/Downloads/withattendandroid/app/src/main/AndroidManifest.xml:61:13-45
	android:theme
		ADDED from /Users/work/Downloads/withattendandroid/app/src/main/AndroidManifest.xml:63:13-44
	android:name
		ADDED from /Users/work/Downloads/withattendandroid/app/src/main/AndroidManifest.xml:60:13-42
activity#com.attend.app.SignUpActivity
ADDED from /Users/work/Downloads/withattendandroid/app/src/main/AndroidManifest.xml:64:9-68:47
	android:screenOrientation
		ADDED from /Users/work/Downloads/withattendandroid/app/src/main/AndroidManifest.xml:67:13-49
	android:label
		ADDED from /Users/work/Downloads/withattendandroid/app/src/main/AndroidManifest.xml:66:13-45
	android:theme
		ADDED from /Users/work/Downloads/withattendandroid/app/src/main/AndroidManifest.xml:68:13-44
	android:name
		ADDED from /Users/work/Downloads/withattendandroid/app/src/main/AndroidManifest.xml:65:13-43
activity#com.attend.app.DashboardActivity
ADDED from /Users/work/Downloads/withattendandroid/app/src/main/AndroidManifest.xml:69:9-73:46
	android:screenOrientation
		ADDED from /Users/work/Downloads/withattendandroid/app/src/main/AndroidManifest.xml:72:13-49
	android:label
		ADDED from /Users/work/Downloads/withattendandroid/app/src/main/AndroidManifest.xml:71:13-61
	android:theme
		ADDED from /Users/work/Downloads/withattendandroid/app/src/main/AndroidManifest.xml:73:13-44
	android:name
		ADDED from /Users/work/Downloads/withattendandroid/app/src/main/AndroidManifest.xml:70:13-46
activity#com.attend.app.HowItWorksActivity
ADDED from /Users/work/Downloads/withattendandroid/app/src/main/AndroidManifest.xml:74:9-77:46
	android:screenOrientation
		ADDED from /Users/work/Downloads/withattendandroid/app/src/main/AndroidManifest.xml:76:13-49
	android:theme
		ADDED from /Users/work/Downloads/withattendandroid/app/src/main/AndroidManifest.xml:77:13-44
	android:name
		ADDED from /Users/work/Downloads/withattendandroid/app/src/main/AndroidManifest.xml:75:13-47
activity#com.attend.app.WelcomeActivity
ADDED from /Users/work/Downloads/withattendandroid/app/src/main/AndroidManifest.xml:78:9-81:56
	android:screenOrientation
		ADDED from /Users/work/Downloads/withattendandroid/app/src/main/AndroidManifest.xml:80:13-49
	android:theme
		ADDED from /Users/work/Downloads/withattendandroid/app/src/main/AndroidManifest.xml:81:13-44
	android:name
		ADDED from /Users/work/Downloads/withattendandroid/app/src/main/AndroidManifest.xml:79:13-44
receiver#com.attend.app.NotificationPublisher
ADDED from /Users/work/Downloads/withattendandroid/app/src/main/AndroidManifest.xml:82:9-58
	android:name
		ADDED from /Users/work/Downloads/withattendandroid/app/src/main/AndroidManifest.xml:82:19-56
service#com.attend.firebase.MyFirebaseMessagingService
ADDED from /Users/work/Downloads/withattendandroid/app/src/main/AndroidManifest.xml:83:9-88:19
	android:name
		ADDED from /Users/work/Downloads/withattendandroid/app/src/main/AndroidManifest.xml:84:13-74
intent-filter#com.google.firebase.MESSAGING_EVENT
ADDED from /Users/work/Downloads/withattendandroid/app/src/main/AndroidManifest.xml:85:13-87:29
action#com.google.firebase.MESSAGING_EVENT
ADDED from /Users/work/Downloads/withattendandroid/app/src/main/AndroidManifest.xml:86:17-77
	android:name
		ADDED from /Users/work/Downloads/withattendandroid/app/src/main/AndroidManifest.xml:86:25-75
service#com.attend.firebase.MyFirebaseInstanceIDService
ADDED from /Users/work/Downloads/withattendandroid/app/src/main/AndroidManifest.xml:89:9-94:19
	android:name
		ADDED from /Users/work/Downloads/withattendandroid/app/src/main/AndroidManifest.xml:90:13-75
intent-filter#com.google.firebase.INSTANCE_ID_EVENT
ADDED from /Users/work/Downloads/withattendandroid/app/src/main/AndroidManifest.xml:91:13-93:29
action#com.google.firebase.INSTANCE_ID_EVENT
ADDED from /Users/work/Downloads/withattendandroid/app/src/main/AndroidManifest.xml:92:17-79
	android:name
		ADDED from /Users/work/Downloads/withattendandroid/app/src/main/AndroidManifest.xml:92:25-77
meta-data#io.fabric.ApiKey
ADDED from /Users/work/Downloads/withattendandroid/app/src/main/AndroidManifest.xml:98:9-100:72
	android:value
		ADDED from /Users/work/Downloads/withattendandroid/app/src/main/AndroidManifest.xml:100:13-69
	android:name
		ADDED from /Users/work/Downloads/withattendandroid/app/src/main/AndroidManifest.xml:99:13-44
uses-sdk
INJECTED from /Users/work/Downloads/withattendandroid/app/src/main/AndroidManifest.xml reason: use-sdk injection requested
MERGED from [com.android.support:multidex:1.0.1] /Users/work/.android/build-cache/2ff4c5937c5ffd34626f37e9ceea5cfe84909074/output/AndroidManifest.xml:18:5-42
MERGED from [org.altbeacon:android-beacon-library:2.9.2] /Users/work/.android/build-cache/f31e7733a8d9e6a3c975172351151f54315e0379/output/AndroidManifest.xml:7:5-9:41
MERGED from [com.android.support:support-v13:23.4.0] /Users/work/.android/build-cache/6a1eb7b6f833d963c1c07f3065680d2bcdf2fe57/output/AndroidManifest.xml:20:5-44
MERGED from [com.android.support:design:23.4.0] /Users/work/.android/build-cache/0b9a43519e8f84da91671bf652a744955ee84fae/output/AndroidManifest.xml:20:5-43
MERGED from [com.android.support:recyclerview-v7:23.4.0] /Users/work/.android/build-cache/5d06ef2c3e1ab0af54e4f0be59d7bb5caa9852dc/output/AndroidManifest.xml:20:5-43
MERGED from [com.github.delight-im:Android-DDP:v3.1.2] /Users/work/.android/build-cache/08022a7a5592ffc742c2841ae504d451e78553f4/output/AndroidManifest.xml:5:5-7:41
MERGED from [com.google.firebase:firebase-core:9.4.0] /Users/work/.android/build-cache/9018cfdd9656a09b72ed65e8fc91b54fd91c0443/output/AndroidManifest.xml:4:5-42
MERGED from [com.google.android.gms:play-services:9.4.0] /Users/work/.android/build-cache/53ef53e0f1ecefc806d632a027cf6e2202c719b2/output/AndroidManifest.xml:4:5-42
MERGED from [com.google.android.gms:play-services-ads:9.4.0] /Users/work/.android/build-cache/fbc9f523fde7bdbfbf53344b6528f278642e4b64/output/AndroidManifest.xml:19:5-42
MERGED from [com.google.android.gms:play-services-ads-lite:9.4.0] /Users/work/.android/build-cache/fe22a308ec0ea69a0012531cd7ebb74a3d460d33/output/AndroidManifest.xml:23:5-42
MERGED from [com.google.android.gms:play-services-analytics:9.4.0] /Users/work/.android/build-cache/f1d9aa46d168dfbaec4c583c46f6959faa732b1e/output/AndroidManifest.xml:18:5-42
MERGED from [com.google.android.gms:play-services-appinvite:9.4.0] /Users/work/.android/build-cache/29a49711b90e482b198ce38720bfb0f3d180e3e6/output/AndroidManifest.xml:18:5-42
MERGED from [com.google.android.gms:play-services-auth:9.4.0] /Users/work/.android/build-cache/908820f289cae3ea86447cd4a682d5cdda1d4b7e/output/AndroidManifest.xml:18:5-43
MERGED from [com.google.android.gms:play-services-auth-base:9.4.0] /Users/work/.android/build-cache/0826ed8f5ac80cc1675db913743212b81002eecb/output/AndroidManifest.xml:5:5-43
MERGED from [com.google.android.gms:play-services-cast-framework:9.4.0] /Users/work/.android/build-cache/d0a6f0e0d898e14ad5b50e216799c76c1c887e3f/output/AndroidManifest.xml:4:5-42
MERGED from [com.google.android.gms:play-services-cast:9.4.0] /Users/work/.android/build-cache/f0c31785fe856363da8121ea92265e2aa574a213/output/AndroidManifest.xml:18:5-42
MERGED from [com.android.support:mediarouter-v7:23.0.0] /Users/work/.android/build-cache/7a58a0b50084afece7e0f047f1371294a51741f3/output/AndroidManifest.xml:20:5-43
MERGED from [com.android.support:appcompat-v7:23.4.0] /Users/work/.android/build-cache/9cfe28f2c6500e46548f4d14b935c77ec5f9e1da/output/AndroidManifest.xml:21:5-23:78
MERGED from [com.android.support:animated-vector-drawable:23.4.0] /Users/work/.android/build-cache/ee1d3bbef1efcf4c4a7a6f956adbba6fcbfbdc70/output/AndroidManifest.xml:5:5-44
MERGED from [com.android.support:support-vector-drawable:23.4.0] /Users/work/.android/build-cache/fbe9e5dda92d77ba93a064ac265ec3d7368b5c1c/output/AndroidManifest.xml:5:5-43
MERGED from [com.google.android.gms:play-services-clearcut:9.4.0] /Users/work/.android/build-cache/059c7f7a24c759bcdfc5391e09b95d102f9b931b/output/AndroidManifest.xml:18:5-42
MERGED from [com.google.firebase:firebase-config:9.4.0] /Users/work/.android/build-cache/d4ea88ef30d9ec043d2ea0f165b755c8730c7a0e/output/AndroidManifest.xml:18:5-42
MERGED from [com.google.android.gms:play-services-contextmanager:9.4.0] /Users/work/.android/build-cache/5f9fd8de94d085fff49506f8c05d09b06ffa9863/output/AndroidManifest.xml:18:5-42
MERGED from [com.google.firebase:firebase-crash:9.4.0] /Users/work/.android/build-cache/370bc7179b32e78bacee32b4fdb69c316a4cac80/output/AndroidManifest.xml:22:5-42
MERGED from [com.google.firebase:firebase-auth:9.4.0] /Users/work/.android/build-cache/59c6c63872132176595bed50c67d7b8c8245bc75/output/AndroidManifest.xml:18:5-43
MERGED from [com.google.firebase:firebase-auth-common:9.4.0] /Users/work/.android/build-cache/48b94d4d6c9e4ae3719533fa2474dbe9af02bd4b/output/AndroidManifest.xml:18:5-43
MERGED from [com.google.firebase:firebase-auth-module:9.4.0] /Users/work/.android/build-cache/8522de754338333c4751b778ed36b5c077620bb4/output/AndroidManifest.xml:4:5-43
MERGED from [com.google.firebase:firebase-database:9.4.0] /Users/work/.android/build-cache/95c14fb122b3db8f60e8d17abde8324cf0f6d164/output/AndroidManifest.xml:5:5-43
MERGED from [com.google.firebase:firebase-database-connection:9.4.0] /Users/work/.android/build-cache/5ad546a79f8875ab5ae9005beef0472fdedc1f58/output/AndroidManifest.xml:5:5-43
MERGED from [com.google.firebase:firebase-messaging:9.4.0] /Users/work/.android/build-cache/5a0daf93d9caad4e65d02ccebaaffd5f7f14d2dc/output/AndroidManifest.xml:18:5-42
MERGED from [com.google.firebase:firebase-storage:9.4.0] /Users/work/.android/build-cache/c861ae0e211587f7695d9485a18c6d524665a071/output/AndroidManifest.xml:5:5-43
MERGED from [com.google.firebase:firebase-storage-common:9.4.0] /Users/work/.android/build-cache/b10abcb172bae375ce1743fb26f3f0b63a5a60d4/output/AndroidManifest.xml:5:5-43
MERGED from [com.google.android.gms:play-services-fitness:9.4.0] /Users/work/.android/build-cache/6f90d7b193e890468b49bebc59b943af0f0b4513/output/AndroidManifest.xml:18:5-42
MERGED from [com.google.android.gms:play-services-games:9.4.0] /Users/work/.android/build-cache/b6b5a19b65f373b0a6698792102643997c6cd4ed/output/AndroidManifest.xml:18:5-42
MERGED from [com.google.android.gms:play-services-drive:9.4.0] /Users/work/.android/build-cache/0284bb92315e58ec736f30b14c11290a0adc7d07/output/AndroidManifest.xml:18:5-42
MERGED from [com.google.android.gms:play-services-gass:9.4.0] /Users/work/.android/build-cache/2a0089e247283013d083d01006c58c1352aa5097/output/AndroidManifest.xml:18:5-42
MERGED from [com.google.android.gms:play-services-gcm:9.4.0] /Users/work/.android/build-cache/bcad44bee7d72b8c923b48bb668bfee9284eefb7/output/AndroidManifest.xml:18:5-42
MERGED from [com.google.android.gms:play-services-appindexing:9.4.0] /Users/work/.android/build-cache/3c2e93c2ebe1009f54baefc05a3c81136d9a683d/output/AndroidManifest.xml:18:5-42
MERGED from [com.google.android.gms:play-services-iid:9.4.0] /Users/work/.android/build-cache/cac865e6b1c9ca760030f5906d7567a4d2b801d5/output/AndroidManifest.xml:18:5-42
MERGED from [com.google.android.gms:play-services-location:9.4.0] /Users/work/.android/build-cache/d4b04d20a9a10d86963a4d96bad3df5fefa8f51a/output/AndroidManifest.xml:18:5-42
MERGED from [com.google.android.gms:play-services-nearby:9.4.0] /Users/work/.android/build-cache/7ef52e3754453e12831bef270318eef12f01ca2a/output/AndroidManifest.xml:4:5-42
MERGED from [com.google.android.gms:play-services-panorama:9.4.0] /Users/work/.android/build-cache/0569e415c94675ee14b894d694a220583793abfb/output/AndroidManifest.xml:18:5-42
MERGED from [com.google.android.gms:play-services-places:9.4.0] /Users/work/.android/build-cache/52c3db512996c10b8a733009b19ca1d67387c754/output/AndroidManifest.xml:18:5-42
MERGED from [com.google.android.gms:play-services-plus:9.4.0] /Users/work/.android/build-cache/0bddbcb149d1ad2258f22e3087f59f31f8716e31/output/AndroidManifest.xml:18:5-42
MERGED from [com.google.android.gms:play-services-safetynet:9.4.0] /Users/work/.android/build-cache/9e812650d7ca43a2b869eeac703aedc75fa43e91/output/AndroidManifest.xml:18:5-42
MERGED from [com.google.android.gms:play-services-tagmanager:9.4.0] /Users/work/.android/build-cache/a4e9c32b30efd7445144e4da934729fe5f4d119c/output/AndroidManifest.xml:18:5-42
MERGED from [com.google.android.gms:play-services-analytics-impl:9.4.0] /Users/work/.android/build-cache/576613ac006fbbdfcbfd548563d474e215ca7708/output/AndroidManifest.xml:18:5-42
MERGED from [com.google.android.gms:play-services-tagmanager-api:9.4.0] /Users/work/.android/build-cache/13d4ba8fe1bdce594f2c181522f9b33afec75a4e/output/AndroidManifest.xml:18:5-42
MERGED from [com.google.firebase:firebase-analytics:9.4.0] /Users/work/.android/build-cache/ae7dd4bdaae64f349ca5a4d048cf1112efc51151/output/AndroidManifest.xml:18:5-42
MERGED from [com.google.firebase:firebase-analytics-impl:9.4.0] /Users/work/.android/build-cache/ac4c1f281ab4872cfc87636c914887fa59b85e28/output/AndroidManifest.xml:18:5-42
MERGED from [com.google.firebase:firebase-iid:9.4.0] /Users/work/.android/build-cache/f3506fcf3f4169f73917240b95c59cf1810adaef/output/AndroidManifest.xml:18:5-42
MERGED from [com.google.firebase:firebase-common:9.4.0] /Users/work/.android/build-cache/52bc78d3838bce579433897036df713827886dc5/output/AndroidManifest.xml:4:5-43
MERGED from [com.google.android.gms:play-services-vision:9.4.0] /Users/work/.android/build-cache/ca580a90a6e36f0d190d16261524e7a49a7107b0/output/AndroidManifest.xml:4:5-42
MERGED from [com.google.android.gms:play-services-wallet:9.4.0] /Users/work/.android/build-cache/b626784268724062e4b6dfbab972aa4dde5fc198/output/AndroidManifest.xml:19:5-42
MERGED from [com.google.android.gms:play-services-identity:9.4.0] /Users/work/.android/build-cache/4fbd89e1f8435b5e6d7e7ee1ebe9c2ce595b23e4/output/AndroidManifest.xml:18:5-42
MERGED from [com.google.android.gms:play-services-maps:9.4.0] /Users/work/.android/build-cache/0200337316e9a7eb8a7afbc8e05d8cefc4e29801/output/AndroidManifest.xml:26:5-42
MERGED from [com.google.android.gms:play-services-wearable:9.4.0] /Users/work/.android/build-cache/896c6783c78569d173b42d9ee7e81df085903af9/output/AndroidManifest.xml:18:5-42
MERGED from [com.google.android.gms:play-services-base:9.4.0] /Users/work/.android/build-cache/91c9131a0f5a60439914531fd9d8fcf43b8e8c4d/output/AndroidManifest.xml:18:5-42
MERGED from [com.google.android.gms:play-services-tasks:9.4.0] /Users/work/.android/build-cache/475e4e742b5d423e2c51404be806a923cdcdcd16/output/AndroidManifest.xml:4:5-43
MERGED from [com.google.android.gms:play-services-basement:9.4.0] /Users/work/.android/build-cache/e702cca84dadf5417e0dac986c6387c16d4852d8/output/AndroidManifest.xml:18:5-42
MERGED from [com.android.support:percent:23.2.0] /Users/work/.android/build-cache/37fbc5c99bdbf0e7b9dbf39368e14dac1e13fbe3/output/AndroidManifest.xml:20:5-43
MERGED from [com.android.support:support-v4:23.4.0] /Users/work/.android/build-cache/dedf105fa1624da4fa713364b01d663d52f810be/output/AndroidManifest.xml:20:5-43
MERGED from [com.crashlytics.sdk.android:crashlytics:2.6.1] /Users/work/.android/build-cache/afede2339c099e8f7ed9624730fc71891ac0e1dc/output/AndroidManifest.xml:7:5-43
MERGED from [com.crashlytics.sdk.android:crashlytics-core:2.3.10] /Users/work/.android/build-cache/3694f32a2de082bcefd97f0ccfd7dfb705c9d3d1/output/AndroidManifest.xml:7:5-43
MERGED from [com.crashlytics.sdk.android:beta:1.2.1] /Users/work/.android/build-cache/259f770ef66ba0be0e238de904e044e3f19b999b/output/AndroidManifest.xml:7:5-43
MERGED from [com.crashlytics.sdk.android:answers:1.3.8] /Users/work/.android/build-cache/2a87d35fce089e46c65df31bf559d75d3c8d8c41/output/AndroidManifest.xml:7:5-43
MERGED from [io.fabric.sdk.android:fabric:1.3.12] /Users/work/.android/build-cache/7bef7c3b5176ba5814e7e1e19fd54dff80fcf452/output/AndroidManifest.xml:23:5-43
	tools:overrideLibrary
		ADDED from [com.android.support:appcompat-v7:23.4.0] /Users/work/.android/build-cache/9cfe28f2c6500e46548f4d14b935c77ec5f9e1da/output/AndroidManifest.xml:23:9-75
	android:targetSdkVersion
		INJECTED from /Users/work/Downloads/withattendandroid/app/src/main/AndroidManifest.xml
		INJECTED from /Users/work/Downloads/withattendandroid/app/src/main/AndroidManifest.xml
	android:minSdkVersion
		INJECTED from /Users/work/Downloads/withattendandroid/app/src/main/AndroidManifest.xml
		INJECTED from /Users/work/Downloads/withattendandroid/app/src/main/AndroidManifest.xml
uses-permission#android.permission.BLUETOOTH_ADMIN
ADDED from [org.altbeacon:android-beacon-library:2.9.2] /Users/work/.android/build-cache/f31e7733a8d9e6a3c975172351151f54315e0379/output/AndroidManifest.xml:14:5-16:36
	android:required
		ADDED from [org.altbeacon:android-beacon-library:2.9.2] /Users/work/.android/build-cache/f31e7733a8d9e6a3c975172351151f54315e0379/output/AndroidManifest.xml:16:9-33
	android:name
		ADDED from [org.altbeacon:android-beacon-library:2.9.2] /Users/work/.android/build-cache/f31e7733a8d9e6a3c975172351151f54315e0379/output/AndroidManifest.xml:15:9-58
uses-permission-sdk-23
ADDED from [org.altbeacon:android-beacon-library:2.9.2] /Users/work/.android/build-cache/f31e7733a8d9e6a3c975172351151f54315e0379/output/AndroidManifest.xml:19:5-88
	android:name
		ADDED from [org.altbeacon:android-beacon-library:2.9.2] /Users/work/.android/build-cache/f31e7733a8d9e6a3c975172351151f54315e0379/output/AndroidManifest.xml:19:29-85
receiver#org.altbeacon.beacon.startup.StartupBroadcastReceiver
ADDED from [org.altbeacon:android-beacon-library:2.9.2] /Users/work/.android/build-cache/f31e7733a8d9e6a3c975172351151f54315e0379/output/AndroidManifest.xml:22:9-28:20
	android:name
		ADDED from [org.altbeacon:android-beacon-library:2.9.2] /Users/work/.android/build-cache/f31e7733a8d9e6a3c975172351151f54315e0379/output/AndroidManifest.xml:22:19-87
intent-filter#android.intent.action.ACTION_POWER_CONNECTED+android.intent.action.ACTION_POWER_DISCONNECTED+android.intent.action.BOOT_COMPLETED
ADDED from [org.altbeacon:android-beacon-library:2.9.2] /Users/work/.android/build-cache/f31e7733a8d9e6a3c975172351151f54315e0379/output/AndroidManifest.xml:23:13-27:29
action#android.intent.action.BOOT_COMPLETED
ADDED from [org.altbeacon:android-beacon-library:2.9.2] /Users/work/.android/build-cache/f31e7733a8d9e6a3c975172351151f54315e0379/output/AndroidManifest.xml:24:17-79
	android:name
		ADDED from [org.altbeacon:android-beacon-library:2.9.2] /Users/work/.android/build-cache/f31e7733a8d9e6a3c975172351151f54315e0379/output/AndroidManifest.xml:24:25-76
action#android.intent.action.ACTION_POWER_CONNECTED
ADDED from [org.altbeacon:android-beacon-library:2.9.2] /Users/work/.android/build-cache/f31e7733a8d9e6a3c975172351151f54315e0379/output/AndroidManifest.xml:25:17-87
	android:name
		ADDED from [org.altbeacon:android-beacon-library:2.9.2] /Users/work/.android/build-cache/f31e7733a8d9e6a3c975172351151f54315e0379/output/AndroidManifest.xml:25:25-84
action#android.intent.action.ACTION_POWER_DISCONNECTED
ADDED from [org.altbeacon:android-beacon-library:2.9.2] /Users/work/.android/build-cache/f31e7733a8d9e6a3c975172351151f54315e0379/output/AndroidManifest.xml:26:17-90
	android:name
		ADDED from [org.altbeacon:android-beacon-library:2.9.2] /Users/work/.android/build-cache/f31e7733a8d9e6a3c975172351151f54315e0379/output/AndroidManifest.xml:26:25-87
service#org.altbeacon.beacon.service.BeaconService
ADDED from [org.altbeacon:android-beacon-library:2.9.2] /Users/work/.android/build-cache/f31e7733a8d9e6a3c975172351151f54315e0379/output/AndroidManifest.xml:30:9-35:38
	android:enabled
		ADDED from [org.altbeacon:android-beacon-library:2.9.2] /Users/work/.android/build-cache/f31e7733a8d9e6a3c975172351151f54315e0379/output/AndroidManifest.xml:32:13-35
	android:label
		ADDED from [org.altbeacon:android-beacon-library:2.9.2] /Users/work/.android/build-cache/f31e7733a8d9e6a3c975172351151f54315e0379/output/AndroidManifest.xml:35:13-35
	android:exported
		ADDED from [org.altbeacon:android-beacon-library:2.9.2] /Users/work/.android/build-cache/f31e7733a8d9e6a3c975172351151f54315e0379/output/AndroidManifest.xml:33:13-37
	android:isolatedProcess
		ADDED from [org.altbeacon:android-beacon-library:2.9.2] /Users/work/.android/build-cache/f31e7733a8d9e6a3c975172351151f54315e0379/output/AndroidManifest.xml:34:13-44
	android:name
		ADDED from [org.altbeacon:android-beacon-library:2.9.2] /Users/work/.android/build-cache/f31e7733a8d9e6a3c975172351151f54315e0379/output/AndroidManifest.xml:31:13-70
service#org.altbeacon.beacon.BeaconIntentProcessor
ADDED from [org.altbeacon:android-beacon-library:2.9.2] /Users/work/.android/build-cache/f31e7733a8d9e6a3c975172351151f54315e0379/output/AndroidManifest.xml:36:9-39:40
	android:enabled
		ADDED from [org.altbeacon:android-beacon-library:2.9.2] /Users/work/.android/build-cache/f31e7733a8d9e6a3c975172351151f54315e0379/output/AndroidManifest.xml:38:13-35
	android:exported
		ADDED from [org.altbeacon:android-beacon-library:2.9.2] /Users/work/.android/build-cache/f31e7733a8d9e6a3c975172351151f54315e0379/output/AndroidManifest.xml:39:13-37
	android:name
		ADDED from [org.altbeacon:android-beacon-library:2.9.2] /Users/work/.android/build-cache/f31e7733a8d9e6a3c975172351151f54315e0379/output/AndroidManifest.xml:37:13-70
activity#com.google.android.gms.ads.AdActivity
ADDED from [com.google.android.gms:play-services-ads-lite:9.4.0] /Users/work/.android/build-cache/fe22a308ec0ea69a0012531cd7ebb74a3d460d33/output/AndroidManifest.xml:26:9-29:64
	android:configChanges
		ADDED from [com.google.android.gms:play-services-ads-lite:9.4.0] /Users/work/.android/build-cache/fe22a308ec0ea69a0012531cd7ebb74a3d460d33/output/AndroidManifest.xml:28:13-122
	android:theme
		ADDED from [com.google.android.gms:play-services-ads-lite:9.4.0] /Users/work/.android/build-cache/fe22a308ec0ea69a0012531cd7ebb74a3d460d33/output/AndroidManifest.xml:29:13-61
	android:name
		ADDED from [com.google.android.gms:play-services-ads-lite:9.4.0] /Users/work/.android/build-cache/fe22a308ec0ea69a0012531cd7ebb74a3d460d33/output/AndroidManifest.xml:27:13-65
activity#com.google.android.gms.ads.purchase.InAppPurchaseActivity
ADDED from [com.google.android.gms:play-services-ads-lite:9.4.0] /Users/work/.android/build-cache/fe22a308ec0ea69a0012531cd7ebb74a3d460d33/output/AndroidManifest.xml:30:9-31:52
	android:theme
		ADDED from [com.google.android.gms:play-services-ads-lite:9.4.0] /Users/work/.android/build-cache/fe22a308ec0ea69a0012531cd7ebb74a3d460d33/output/AndroidManifest.xml:31:13-50
	android:name
		ADDED from [com.google.android.gms:play-services-ads-lite:9.4.0] /Users/work/.android/build-cache/fe22a308ec0ea69a0012531cd7ebb74a3d460d33/output/AndroidManifest.xml:30:19-91
activity#com.google.android.gms.appinvite.PreviewActivity
ADDED from [com.google.android.gms:play-services-appinvite:9.4.0] /Users/work/.android/build-cache/29a49711b90e482b198ce38720bfb0f3d180e3e6/output/AndroidManifest.xml:21:9-29:20
	android:exported
		ADDED from [com.google.android.gms:play-services-appinvite:9.4.0] /Users/work/.android/build-cache/29a49711b90e482b198ce38720bfb0f3d180e3e6/output/AndroidManifest.xml:23:17-40
	android:theme
		ADDED from [com.google.android.gms:play-services-appinvite:9.4.0] /Users/work/.android/build-cache/29a49711b90e482b198ce38720bfb0f3d180e3e6/output/AndroidManifest.xml:24:17-63
	android:name
		ADDED from [com.google.android.gms:play-services-appinvite:9.4.0] /Users/work/.android/build-cache/29a49711b90e482b198ce38720bfb0f3d180e3e6/output/AndroidManifest.xml:22:17-48
intent-filter#android.intent.category.DEFAULT+com.google.android.gms.appinvite.ACTION_PREVIEW
ADDED from [com.google.android.gms:play-services-appinvite:9.4.0] /Users/work/.android/build-cache/29a49711b90e482b198ce38720bfb0f3d180e3e6/output/AndroidManifest.xml:25:13-28:29
action#com.google.android.gms.appinvite.ACTION_PREVIEW
ADDED from [com.google.android.gms:play-services-appinvite:9.4.0] /Users/work/.android/build-cache/29a49711b90e482b198ce38720bfb0f3d180e3e6/output/AndroidManifest.xml:26:17-89
	android:name
		ADDED from [com.google.android.gms:play-services-appinvite:9.4.0] /Users/work/.android/build-cache/29a49711b90e482b198ce38720bfb0f3d180e3e6/output/AndroidManifest.xml:26:25-87
activity#com.google.android.gms.auth.api.signin.internal.SignInHubActivity
ADDED from [com.google.android.gms:play-services-auth:9.4.0] /Users/work/.android/build-cache/908820f289cae3ea86447cd4a682d5cdda1d4b7e/output/AndroidManifest.xml:21:9-24:46
	android:excludeFromRecents
		ADDED from [com.google.android.gms:play-services-auth:9.4.0] /Users/work/.android/build-cache/908820f289cae3ea86447cd4a682d5cdda1d4b7e/output/AndroidManifest.xml:23:19-52
	android:exported
		ADDED from [com.google.android.gms:play-services-auth:9.4.0] /Users/work/.android/build-cache/908820f289cae3ea86447cd4a682d5cdda1d4b7e/output/AndroidManifest.xml:24:19-43
	android:theme
		ADDED from [com.google.android.gms:play-services-auth:9.4.0] /Users/work/.android/build-cache/908820f289cae3ea86447cd4a682d5cdda1d4b7e/output/AndroidManifest.xml:22:19-78
	android:name
		ADDED from [com.google.android.gms:play-services-auth:9.4.0] /Users/work/.android/build-cache/908820f289cae3ea86447cd4a682d5cdda1d4b7e/output/AndroidManifest.xml:21:19-68
service#com.google.android.gms.auth.api.signin.RevocationBoundService
ADDED from [com.google.android.gms:play-services-auth:9.4.0] /Users/work/.android/build-cache/908820f289cae3ea86447cd4a682d5cdda1d4b7e/output/AndroidManifest.xml:28:9-31:110
	android:exported
		ADDED from [com.google.android.gms:play-services-auth:9.4.0] /Users/work/.android/build-cache/908820f289cae3ea86447cd4a682d5cdda1d4b7e/output/AndroidManifest.xml:30:13-36
	android:permission
		ADDED from [com.google.android.gms:play-services-auth:9.4.0] /Users/work/.android/build-cache/908820f289cae3ea86447cd4a682d5cdda1d4b7e/output/AndroidManifest.xml:31:13-107
	android:name
		ADDED from [com.google.android.gms:play-services-auth:9.4.0] /Users/work/.android/build-cache/908820f289cae3ea86447cd4a682d5cdda1d4b7e/output/AndroidManifest.xml:29:13-58
receiver#com.google.android.gms.cast.framework.media.MediaIntentReceiver
ADDED from [com.google.android.gms:play-services-cast-framework:9.4.0] /Users/work/.android/build-cache/d0a6f0e0d898e14ad5b50e216799c76c1c887e3f/output/AndroidManifest.xml:6:9-100
	android:name
		ADDED from [com.google.android.gms:play-services-cast-framework:9.4.0] /Users/work/.android/build-cache/d0a6f0e0d898e14ad5b50e216799c76c1c887e3f/output/AndroidManifest.xml:6:19-97
service#com.google.android.gms.cast.framework.media.MediaNotificationService
ADDED from [com.google.android.gms:play-services-cast-framework:9.4.0] /Users/work/.android/build-cache/d0a6f0e0d898e14ad5b50e216799c76c1c887e3f/output/AndroidManifest.xml:7:9-104
	android:name
		ADDED from [com.google.android.gms:play-services-cast-framework:9.4.0] /Users/work/.android/build-cache/d0a6f0e0d898e14ad5b50e216799c76c1c887e3f/output/AndroidManifest.xml:7:18-101
service#com.google.android.gms.cast.framework.ReconnectionService
ADDED from [com.google.android.gms:play-services-cast-framework:9.4.0] /Users/work/.android/build-cache/d0a6f0e0d898e14ad5b50e216799c76c1c887e3f/output/AndroidManifest.xml:8:9-92
	android:name
		ADDED from [com.google.android.gms:play-services-cast-framework:9.4.0] /Users/work/.android/build-cache/d0a6f0e0d898e14ad5b50e216799c76c1c887e3f/output/AndroidManifest.xml:8:18-90
service#com.google.firebase.crash.internal.service.FirebaseCrashReceiverService
ADDED from [com.google.firebase:firebase-crash:9.4.0] /Users/work/.android/build-cache/370bc7179b32e78bacee32b4fdb69c316a4cac80/output/AndroidManifest.xml:26:9-27:50
	android:process
		ADDED from [com.google.firebase:firebase-crash:9.4.0] /Users/work/.android/build-cache/370bc7179b32e78bacee32b4fdb69c316a4cac80/output/AndroidManifest.xml:27:13-48
	android:name
		ADDED from [com.google.firebase:firebase-crash:9.4.0] /Users/work/.android/build-cache/370bc7179b32e78bacee32b4fdb69c316a4cac80/output/AndroidManifest.xml:26:18-79
service#com.google.firebase.crash.internal.service.FirebaseCrashSenderService
ADDED from [com.google.firebase:firebase-crash:9.4.0] /Users/work/.android/build-cache/370bc7179b32e78bacee32b4fdb69c316a4cac80/output/AndroidManifest.xml:29:9-30:50
	android:process
		ADDED from [com.google.firebase:firebase-crash:9.4.0] /Users/work/.android/build-cache/370bc7179b32e78bacee32b4fdb69c316a4cac80/output/AndroidManifest.xml:30:13-48
	android:name
		ADDED from [com.google.firebase:firebase-crash:9.4.0] /Users/work/.android/build-cache/370bc7179b32e78bacee32b4fdb69c316a4cac80/output/AndroidManifest.xml:29:18-77
service#com.google.firebase.messaging.FirebaseMessagingService
ADDED from [com.google.firebase:firebase-messaging:9.4.0] /Users/work/.android/build-cache/5a0daf93d9caad4e65d02ccebaaffd5f7f14d2dc/output/AndroidManifest.xml:24:9-30:19
	android:exported
		ADDED from [com.google.firebase:firebase-messaging:9.4.0] /Users/work/.android/build-cache/5a0daf93d9caad4e65d02ccebaaffd5f7f14d2dc/output/AndroidManifest.xml:26:13-36
	android:name
		ADDED from [com.google.firebase:firebase-messaging:9.4.0] /Users/work/.android/build-cache/5a0daf93d9caad4e65d02ccebaaffd5f7f14d2dc/output/AndroidManifest.xml:25:13-82
service#com.google.android.gms.tagmanager.TagManagerService
ADDED from [com.google.android.gms:play-services-tagmanager-api:9.4.0] /Users/work/.android/build-cache/13d4ba8fe1bdce594f2c181522f9b33afec75a4e/output/AndroidManifest.xml:25:9-27:42
	android:enabled
		ADDED from [com.google.android.gms:play-services-tagmanager-api:9.4.0] /Users/work/.android/build-cache/13d4ba8fe1bdce594f2c181522f9b33afec75a4e/output/AndroidManifest.xml:27:17-39
	android:exported
		ADDED from [com.google.android.gms:play-services-tagmanager-api:9.4.0] /Users/work/.android/build-cache/13d4ba8fe1bdce594f2c181522f9b33afec75a4e/output/AndroidManifest.xml:26:17-41
	android:name
		ADDED from [com.google.android.gms:play-services-tagmanager-api:9.4.0] /Users/work/.android/build-cache/13d4ba8fe1bdce594f2c181522f9b33afec75a4e/output/AndroidManifest.xml:25:18-84
activity#com.google.android.gms.tagmanager.TagManagerPreviewActivity
ADDED from [com.google.android.gms:play-services-tagmanager-api:9.4.0] /Users/work/.android/build-cache/13d4ba8fe1bdce594f2c181522f9b33afec75a4e/output/AndroidManifest.xml:28:9-37:20
	android:noHistory
		ADDED from [com.google.android.gms:play-services-tagmanager-api:9.4.0] /Users/work/.android/build-cache/13d4ba8fe1bdce594f2c181522f9b33afec75a4e/output/AndroidManifest.xml:30:13-37
	android:name
		ADDED from [com.google.android.gms:play-services-tagmanager-api:9.4.0] /Users/work/.android/build-cache/13d4ba8fe1bdce594f2c181522f9b33afec75a4e/output/AndroidManifest.xml:29:13-87
receiver#com.google.android.gms.measurement.AppMeasurementReceiver
ADDED from [com.google.firebase:firebase-analytics:9.4.0] /Users/work/.android/build-cache/ae7dd4bdaae64f349ca5a4d048cf1112efc51151/output/AndroidManifest.xml:28:7-34:18
MERGED from [com.google.firebase:firebase-analytics-impl:9.4.0] /Users/work/.android/build-cache/ac4c1f281ab4872cfc87636c914887fa59b85e28/output/AndroidManifest.xml:28:7-34:18
	android:enabled
		ADDED from [com.google.firebase:firebase-analytics:9.4.0] /Users/work/.android/build-cache/ae7dd4bdaae64f349ca5a4d048cf1112efc51151/output/AndroidManifest.xml:30:11-33
	android:name
		ADDED from [com.google.firebase:firebase-analytics:9.4.0] /Users/work/.android/build-cache/ae7dd4bdaae64f349ca5a4d048cf1112efc51151/output/AndroidManifest.xml:29:11-83
intent-filter#com.google.android.gms.measurement.UPLOAD
ADDED from [com.google.firebase:firebase-analytics:9.4.0] /Users/work/.android/build-cache/ae7dd4bdaae64f349ca5a4d048cf1112efc51151/output/AndroidManifest.xml:31:9-33:25
action#com.google.android.gms.measurement.UPLOAD
ADDED from [com.google.firebase:firebase-analytics:9.4.0] /Users/work/.android/build-cache/ae7dd4bdaae64f349ca5a4d048cf1112efc51151/output/AndroidManifest.xml:32:11-77
	android:name
		ADDED from [com.google.firebase:firebase-analytics:9.4.0] /Users/work/.android/build-cache/ae7dd4bdaae64f349ca5a4d048cf1112efc51151/output/AndroidManifest.xml:32:19-75
service#com.google.android.gms.measurement.AppMeasurementService
ADDED from [com.google.firebase:firebase-analytics:9.4.0] /Users/work/.android/build-cache/ae7dd4bdaae64f349ca5a4d048cf1112efc51151/output/AndroidManifest.xml:36:7-39:37
MERGED from [com.google.firebase:firebase-analytics-impl:9.4.0] /Users/work/.android/build-cache/ac4c1f281ab4872cfc87636c914887fa59b85e28/output/AndroidManifest.xml:36:7-39:37
	android:enabled
		ADDED from [com.google.firebase:firebase-analytics:9.4.0] /Users/work/.android/build-cache/ae7dd4bdaae64f349ca5a4d048cf1112efc51151/output/AndroidManifest.xml:38:11-33
	android:exported
		ADDED from [com.google.firebase:firebase-analytics:9.4.0] /Users/work/.android/build-cache/ae7dd4bdaae64f349ca5a4d048cf1112efc51151/output/AndroidManifest.xml:39:11-35
	android:name
		ADDED from [com.google.firebase:firebase-analytics:9.4.0] /Users/work/.android/build-cache/ae7dd4bdaae64f349ca5a4d048cf1112efc51151/output/AndroidManifest.xml:37:11-82
permission#com.attend.app.permission.C2D_MESSAGE
MERGED from [com.google.firebase:firebase-iid:9.4.0] /Users/work/.android/build-cache/f3506fcf3f4169f73917240b95c59cf1810adaef/output/AndroidManifest.xml:25:5-26:47
uses-permission#com.attend.app.permission.C2D_MESSAGE
MERGED from [com.google.firebase:firebase-iid:9.4.0] /Users/work/.android/build-cache/f3506fcf3f4169f73917240b95c59cf1810adaef/output/AndroidManifest.xml:28:5-79
receiver#com.google.firebase.iid.FirebaseInstanceIdReceiver
ADDED from [com.google.firebase:firebase-iid:9.4.0] /Users/work/.android/build-cache/f3506fcf3f4169f73917240b95c59cf1810adaef/output/AndroidManifest.xml:32:9-41:20
	android:exported
		ADDED from [com.google.firebase:firebase-iid:9.4.0] /Users/work/.android/build-cache/f3506fcf3f4169f73917240b95c59cf1810adaef/output/AndroidManifest.xml:34:13-36
	android:permission
		ADDED from [com.google.firebase:firebase-iid:9.4.0] /Users/work/.android/build-cache/f3506fcf3f4169f73917240b95c59cf1810adaef/output/AndroidManifest.xml:35:13-73
	android:name
		ADDED from [com.google.firebase:firebase-iid:9.4.0] /Users/work/.android/build-cache/f3506fcf3f4169f73917240b95c59cf1810adaef/output/AndroidManifest.xml:33:13-78
intent-filter#${applicationId}+com.google.android.c2dm.intent.RECEIVE+com.google.android.c2dm.intent.REGISTRATION
ADDED from [com.google.firebase:firebase-iid:9.4.0] /Users/work/.android/build-cache/f3506fcf3f4169f73917240b95c59cf1810adaef/output/AndroidManifest.xml:36:13-40:29
action#com.google.android.c2dm.intent.RECEIVE
ADDED from [com.google.firebase:firebase-iid:9.4.0] /Users/work/.android/build-cache/f3506fcf3f4169f73917240b95c59cf1810adaef/output/AndroidManifest.xml:37:17-81
	android:name
		ADDED from [com.google.firebase:firebase-iid:9.4.0] /Users/work/.android/build-cache/f3506fcf3f4169f73917240b95c59cf1810adaef/output/AndroidManifest.xml:37:25-78
action#com.google.android.c2dm.intent.REGISTRATION
ADDED from [com.google.firebase:firebase-iid:9.4.0] /Users/work/.android/build-cache/f3506fcf3f4169f73917240b95c59cf1810adaef/output/AndroidManifest.xml:38:17-86
	android:name
		ADDED from [com.google.firebase:firebase-iid:9.4.0] /Users/work/.android/build-cache/f3506fcf3f4169f73917240b95c59cf1810adaef/output/AndroidManifest.xml:38:25-83
category#${applicationId}
ADDED from [com.google.firebase:firebase-iid:9.4.0] /Users/work/.android/build-cache/f3506fcf3f4169f73917240b95c59cf1810adaef/output/AndroidManifest.xml:39:17-61
	android:name
		ADDED from [com.google.firebase:firebase-iid:9.4.0] /Users/work/.android/build-cache/f3506fcf3f4169f73917240b95c59cf1810adaef/output/AndroidManifest.xml:39:27-58
receiver#com.google.firebase.iid.FirebaseInstanceIdInternalReceiver
ADDED from [com.google.firebase:firebase-iid:9.4.0] /Users/work/.android/build-cache/f3506fcf3f4169f73917240b95c59cf1810adaef/output/AndroidManifest.xml:45:9-47:40
	android:exported
		ADDED from [com.google.firebase:firebase-iid:9.4.0] /Users/work/.android/build-cache/f3506fcf3f4169f73917240b95c59cf1810adaef/output/AndroidManifest.xml:47:13-37
	android:name
		ADDED from [com.google.firebase:firebase-iid:9.4.0] /Users/work/.android/build-cache/f3506fcf3f4169f73917240b95c59cf1810adaef/output/AndroidManifest.xml:46:13-86
service#com.google.firebase.iid.FirebaseInstanceIdService
ADDED from [com.google.firebase:firebase-iid:9.4.0] /Users/work/.android/build-cache/f3506fcf3f4169f73917240b95c59cf1810adaef/output/AndroidManifest.xml:51:9-57:19
	android:exported
		ADDED from [com.google.firebase:firebase-iid:9.4.0] /Users/work/.android/build-cache/f3506fcf3f4169f73917240b95c59cf1810adaef/output/AndroidManifest.xml:53:13-36
	android:name
		ADDED from [com.google.firebase:firebase-iid:9.4.0] /Users/work/.android/build-cache/f3506fcf3f4169f73917240b95c59cf1810adaef/output/AndroidManifest.xml:52:13-77
provider#com.google.firebase.provider.FirebaseInitProvider
ADDED from [com.google.firebase:firebase-common:9.4.0] /Users/work/.android/build-cache/52bc78d3838bce579433897036df713827886dc5/output/AndroidManifest.xml:7:9-11:39
	android:authorities
		ADDED from [com.google.firebase:firebase-common:9.4.0] /Users/work/.android/build-cache/52bc78d3838bce579433897036df713827886dc5/output/AndroidManifest.xml:8:13-72
	android:exported
		ADDED from [com.google.firebase:firebase-common:9.4.0] /Users/work/.android/build-cache/52bc78d3838bce579433897036df713827886dc5/output/AndroidManifest.xml:10:13-37
	android:initOrder
		ADDED from [com.google.firebase:firebase-common:9.4.0] /Users/work/.android/build-cache/52bc78d3838bce579433897036df713827886dc5/output/AndroidManifest.xml:11:13-36
	android:name
		ADDED from [com.google.firebase:firebase-common:9.4.0] /Users/work/.android/build-cache/52bc78d3838bce579433897036df713827886dc5/output/AndroidManifest.xml:9:13-58
uses-feature#0x00020000
ADDED from [com.google.android.gms:play-services-maps:9.4.0] /Users/work/.android/build-cache/0200337316e9a7eb8a7afbc8e05d8cefc4e29801/output/AndroidManifest.xml:22:5-24:33
	android:glEsVersion
		ADDED from [com.google.android.gms:play-services-maps:9.4.0] /Users/work/.android/build-cache/0200337316e9a7eb8a7afbc8e05d8cefc4e29801/output/AndroidManifest.xml:23:8-40
	android:required
		ADDED from [com.google.android.gms:play-services-maps:9.4.0] /Users/work/.android/build-cache/0200337316e9a7eb8a7afbc8e05d8cefc4e29801/output/AndroidManifest.xml:24:8-31
activity#com.google.android.gms.common.api.GoogleApiActivity
ADDED from [com.google.android.gms:play-services-base:9.4.0] /Users/work/.android/build-cache/91c9131a0f5a60439914531fd9d8fcf43b8e8c4d/output/AndroidManifest.xml:20:9-22:45
	android:exported
		ADDED from [com.google.android.gms:play-services-base:9.4.0] /Users/work/.android/build-cache/91c9131a0f5a60439914531fd9d8fcf43b8e8c4d/output/AndroidManifest.xml:22:19-43
	android:theme
		ADDED from [com.google.android.gms:play-services-base:9.4.0] /Users/work/.android/build-cache/91c9131a0f5a60439914531fd9d8fcf43b8e8c4d/output/AndroidManifest.xml:21:19-78
	android:name
		ADDED from [com.google.android.gms:play-services-base:9.4.0] /Users/work/.android/build-cache/91c9131a0f5a60439914531fd9d8fcf43b8e8c4d/output/AndroidManifest.xml:20:19-85
meta-data#com.google.android.gms.version
ADDED from [com.google.android.gms:play-services-basement:9.4.0] /Users/work/.android/build-cache/e702cca84dadf5417e0dac986c6387c16d4852d8/output/AndroidManifest.xml:21:9-23:69
	android:value
		ADDED from [com.google.android.gms:play-services-basement:9.4.0] /Users/work/.android/build-cache/e702cca84dadf5417e0dac986c6387c16d4852d8/output/AndroidManifest.xml:23:13-66
	android:name
		ADDED from [com.google.android.gms:play-services-basement:9.4.0] /Users/work/.android/build-cache/e702cca84dadf5417e0dac986c6387c16d4852d8/output/AndroidManifest.xml:22:13-58
